<svg xmlns="http://www.w3.org/2000/svg" xmlns:xlink="http://www.w3.org/1999/xlink" width="1161" height="315" viewBox="0 0 1161 315">
    <defs>
        <circle id="b" cx="1087.5" cy="759.5" r="3.5"/>
        <filter id="a" width="485.7%" height="485.7%" x="-192.9%" y="-192.9%" filterUnits="objectBoundingBox">
            <feOffset in="SourceAlpha" result="shadowOffsetOuter1"/>
            <feGaussianBlur in="shadowOffsetOuter1" result="shadowBlurOuter1" stdDeviation="4.5"/>
            <feColorMatrix in="shadowBlurOuter1" values="0 0 0 0 0.188235294 0 0 0 0 0.831372549 0 0 0 0 0.819607843 0 0 0 1 0"/>
        </filter>
        <circle id="d" cx="476.5" cy="886.5" r="3.5"/>
        <filter id="c" width="485.7%" height="485.7%" x="-192.9%" y="-192.9%" filterUnits="objectBoundingBox">
            <feOffset in="SourceAlpha" result="shadowOffsetOuter1"/>
            <feGaussianBlur in="shadowOffsetOuter1" result="shadowBlurOuter1" stdDeviation="4.5"/>
            <feColorMatrix in="shadowBlurOuter1" values="0 0 0 0 0.188235294 0 0 0 0 0.831372549 0 0 0 0 0.819607843 0 0 0 1 0"/>
        </filter>
    </defs>
    <g fill="none" fill-rule="evenodd" transform="translate(-194 -678)">
        <circle cx="774" cy="786" r="429" stroke="#FFF" opacity=".05"/>
        <ellipse cx="774.5" cy="785.5" stroke="#FFF" opacity=".03" rx="579.5" ry="587.5"/>
        <ellipse cx="774.5" cy="785.5" stroke="#FFF" opacity=".02" rx="774.5" ry="785.5"/>
        <circle cx="774.5" cy="785.5" r="314.5" stroke="#FFF" opacity=".07"/>
        <circle cx="774.5" cy="785.5" r="201.5" stroke="#FFF" opacity=".08"/>
        <circle cx="775" cy="786" r="71" stroke="#FFF" opacity=".1"/>
        <use fill="#000" filter="url(#a)" xlink:href="#b"/>
        <use fill="#30BCD4" xlink:href="#b"/>
        <g>
            <use fill="#000" filter="url(#c)" xlink:href="#d"/>
            <use fill="#30BCD4" xlink:href="#d"/>
        </g>
    </g>
</svg>
