<svg xmlns="http://www.w3.org/2000/svg" width="20" height="20" viewBox="0 0 20 20">
    <path fill="#37C463" fill-rule="nonzero" d="M10 0C4.479 0 .002 4.477.002 10c0 5.522 4.477 10 10 10 5.522 0 10-4.477 10-10s-4.478-10-10-10zm4.754 7.196l-.95.95-1.933-1.933-.733.733L13.07 8.88 8.33 13.622l-1.933-1.934-.734.734 1.934 1.933-.473.473-.009-.01a.374.374 0 0 1-.239.172l-1.803.402a.373.373 0 0 1-.346-.1.374.374 0 0 1-.1-.347l.4-1.803a.375.375 0 0 1 .173-.238l-.01-.01 7.632-7.631a.287.287 0 0 1 .405 0l1.529 1.528a.287.287 0 0 1 0 .405z"/>
</svg>
