<svg xmlns="http://www.w3.org/2000/svg" width="21" height="21" viewBox="0 0 21 21">
    <defs>
        <linearGradient id="a" x1="0%" y1="0%" y2="100%">
            <stop offset="0%" stop-color="#76B6EB"/>
            <stop offset="100%" stop-color="#3D2AB9"/>
        </linearGradient>
    </defs>
    <g fill="none" fill-rule="evenodd" transform="translate(.52 .5)">
        <circle cx="10.204" cy="10.204" r="10.204" fill="url(#a)"/>
        <path fill="#FFF" fill-rule="nonzero" d="M6.53 10.204c0 .334.266.602.598.602h4.71L9.81 12.849a.601.601 0 0 0 0 .85.59.59 0 0 0 .845 0l3.048-3.07a.61.61 0 0 0 .175-.425.61.61 0 0 0-.175-.425l-3.048-3.07a.59.59 0 0 0-.845 0 .601.601 0 0 0 0 .85l2.028 2.043h-4.71a.597.597 0 0 0-.597.602z"/>
    </g>
</svg>
