<svg xmlns="http://www.w3.org/2000/svg" width="32" height="25" viewBox="0 0 32 25">
    <defs>
        <linearGradient id="a" x1="77.864%" x2="27.599%" y1="20.869%" y2="71.949%">
            <stop offset="0%" stop-color="#76B6EB"/>
            <stop offset="100%" stop-color="#3D2AB9"/>
        </linearGradient>
    </defs>
    <path fill="url(#a)" fill-rule="evenodd" d="M555.664 3243.99c.519 0 .944.425.944.945s-.425.945-.944.945a.947.947 0 0 1-.943-.945c0-.52.425-.946.943-.946zm0 11.02a.946.946 0 0 0 0-1.89.946.946 0 0 0 0 1.89zm-4.402-6.456a.947.947 0 0 1 0 1.892.947.947 0 0 1 0-1.892zm17.051 0a.947.947 0 0 1 0 1.892.947.947 0 0 1 0-1.892zm0-1.333a2.279 2.279 0 0 1 0 4.557 2.279 2.279 0 0 1-2.172-1.613h-12.706a2.28 2.28 0 0 1-2.173 1.613 2.279 2.279 0 0 1 0-4.557 2.28 2.28 0 0 1 2.174 1.615h12.704a2.278 2.278 0 0 1 2.173-1.615zM542 3237h27.62v5.94h-2.19v-3.744h-23.24v20.608h23.24v-3.743h2.19V3262H542v-25zm32 7.27v10.46h-16.162a2.281 2.281 0 0 1-2.175 1.614 2.28 2.28 0 0 1-2.271-2.278 2.28 2.28 0 0 1 2.271-2.278c1.022 0 1.89.68 2.175 1.613h14.836v-7.8h-14.836a2.28 2.28 0 0 1-2.174 1.613 2.279 2.279 0 0 1 0-4.557c1.021 0 1.89.681 2.174 1.613H574z" transform="translate(-542 -3237)"/>
</svg>
