<svg xmlns="http://www.w3.org/2000/svg" xmlns:xlink="http://www.w3.org/1999/xlink" width="103" height="94" viewBox="0 0 103 94">
    <defs>
        <linearGradient id="a" x1="50%" x2="50%" y1="-7.951%" y2="145.587%">
            <stop offset="0%" stop-color="#FFF"/>
            <stop offset="100%" stop-color="#3D2AB9"/>
        </linearGradient>
        <linearGradient id="b" x1="77.864%" x2="27.599%" y1="20.869%" y2="71.949%">
            <stop offset="0%" stop-color="#76B6EB"/>
            <stop offset="100%" stop-color="#3D2AB9"/>
        </linearGradient>
        <path id="c" d="M85.08 44.239c0 16.52-13.387 29.911-29.9 29.911-16.513 0-29.9-13.391-29.9-29.911 0-16.52 13.387-29.912 29.9-29.912 16.513 0 29.9 13.391 29.9 29.912"/>
    </defs>
    <g fill="none" fill-rule="evenodd">
        <path fill="url(#a)" d="M63.382 51.29v27.28h3.233L54.738 93.5 42.862 78.57h3.234V51.29H13.044C5.884 51.29.082 45.455.082 38.253c0-7.178 5.766-12.998 12.893-13.038 2.548-8.105 10.084-13.981 18.983-13.981 3.306 0 6.418.815 9.163 2.247C45.444 5.735 53.684.5 63.14.5 74.486.5 84.08 8.025 87.26 18.384c8.713.375 15.657 7.59 15.657 16.445 0 9.091-7.324 16.462-16.362 16.462H63.382z"/>
        <g>
            <use fill="url(#b)" xlink:href="#c"/>
            <path stroke="#FFF" stroke-width="5" d="M82.58 44.239c0-15.14-12.267-27.412-27.4-27.412S27.78 29.1 27.78 44.24c0 15.14 12.267 27.411 27.4 27.411 15.132 0 27.4-12.272 27.4-27.411z"/>
        </g>
        <path fill="#FFF" d="M53.326 58l4.378-12.357H45L58.839 28l-4.543 12.239H67z"/>
    </g>
</svg>
