<svg xmlns="http://www.w3.org/2000/svg" width="9" height="9" viewBox="0 0 9 9">
    <path fill="#4A84CE" fill-rule="nonzero" d="M9 4.5a.731.731 0 0 0-.732-.737h-5.77L4.982 1.26a.736.736 0 0 0 0-1.042.723.723 0 0 0-1.034 0L.214 3.978A.748.748 0 0 0 0 4.5c0 .186.074.38.214.521l3.734 3.761c.288.29.746.29 1.034 0a.736.736 0 0 0 0-1.042L2.498 5.237h5.77A.731.731 0 0 0 9 4.5z"/>
</svg>
