<svg xmlns="http://www.w3.org/2000/svg" width="36" height="22" viewBox="0 0 36 22">
    <defs>
        <linearGradient id="a" x1="77.864%" x2="27.599%" y1="20.869%" y2="71.949%">
            <stop offset="0%" stop-color="#76B6EB"/>
            <stop offset="100%" stop-color="#3D2AB9"/>
        </linearGradient>
    </defs>
    <path fill="url(#a)" fill-rule="evenodd" d="M968.401 3115.203h6.796v-14.27h-6.794a10.196 10.196 0 0 1-.002 14.27zm-14.673-14.27h-6.793v14.27h6.795a10.197 10.197 0 0 1-.002-14.27zm4.435 6.167h1.144v-1.933h-1.144v1.933zm2.316 0h1.173v-1.933h-1.173v1.933zm2.344 3.87h1.144v-1.934h-1.144v1.933zm-2.344 0h1.173v-1.934h-1.173v1.933zM981 3121h-32.132v-3.864H945V3099h13.135v1.932h-2.66a9.056 9.056 0 0 0-3.488 7.136 9.056 9.056 0 0 0 3.49 7.135h2.658v1.933h-7.332v1.932h28.262v-14.271h-1.934v12.339h-13.135v-1.933h2.658a9.056 9.056 0 0 0 3.49-7.135 9.056 9.056 0 0 0-3.489-7.136h-2.66V3099h13.136v3.865H981V3121zm-17.007-8.097h-1.17l.001 4.233h-1.173v-4.233h-1.172v4.233h-1.173v-4.233h-2.675v-1.934h2.676v-1.932h-1.169a1.914 1.914 0 0 1-1.908-1.907v-1.99c0-1.047.859-1.905 1.908-1.905h1.169V3099h1.172v4.235h1.173l-.001-4.235h1.173v4.235h2.475v1.933h-2.476v1.932h1.17c1.05 0 1.908.858 1.908 1.907v1.989a1.913 1.913 0 0 1-1.908 1.907z" transform="translate(-945 -3099)"/>
</svg>
