<?xml version="1.0" encoding="UTF-8"?>
<svg width="130px" height="142px" viewBox="0 0 130 142" version="1.1" xmlns="http://www.w3.org/2000/svg" xmlns:xlink="http://www.w3.org/1999/xlink">
    <!-- Generator: sketchtool 49 (51002) - http://www.bohemiancoding.com/sketch -->
    <title>F7764338-1CEC-4875-953D-0594A80EC0BE</title>
    <desc>Created with sketchtool.</desc>
    <defs>
        <linearGradient x1="77.8641522%" y1="20.8687628%" x2="27.5986011%" y2="71.9492997%" id="linearGradient-1">
            <stop stop-color="#76B6EB" offset="0%"></stop>
            <stop stop-color="#3D2AB9" offset="100%"></stop>
        </linearGradient>
        <linearGradient x1="14.0952229%" y1="84.5179509%" x2="93.024689%" y2="23.2219506%" id="linearGradient-2">
            <stop stop-color="#76B6EB" offset="0%"></stop>
            <stop stop-color="#3D2AB9" offset="100%"></stop>
        </linearGradient>
        <linearGradient x1="50%" y1="0%" x2="50%" y2="112.633221%" id="linearGradient-3">
            <stop stop-color="#FFFFFF" offset="0%"></stop>
            <stop stop-color="#3D2AB9" offset="100%"></stop>
        </linearGradient>
    </defs>
    <g id="Pages" stroke="none" stroke-width="1" fill="none" fill-rule="evenodd">
        <g id="Our_BitFerry_1440" transform="translate(-1063.000000, -510.000000)">
            <g id="Group-13" transform="translate(1063.000000, 510.000000)">
                <path d="M69.407,21.9048488 C69.407,34.0031628 59.5995581,43.8098488 47.502,43.8098488 C35.403686,43.8098488 25.5962442,34.0031628 25.5962442,21.9048488 C25.5962442,9.8072907 35.403686,-0.000151162791 47.502,-0.000151162791 C59.5995581,-0.000151162791 69.407,9.8072907 69.407,21.9048488" id="Fill-56" fill="url(#linearGradient-1)"></path>
                <path d="M65.3991453,21.9048488 C65.3991453,31.7893837 57.3860058,39.8025233 47.5014709,39.8025233 C37.6176919,39.8025233 29.6045523,31.7893837 29.6045523,21.9048488 C29.6045523,12.020314 37.6176919,4.00717442 47.5014709,4.00717442 C57.3860058,4.00717442 65.3991453,12.020314 65.3991453,21.9048488" id="Fill-57" fill="url(#linearGradient-2)"></path>
                <path d="M46.9329477,29.5356977 C46.118936,29.5356977 45.5550988,29.5356977 45.0857384,29.4729651 L45.0857384,29.4072093 L45.0857384,23.5247093 L46.7137616,23.5247093 C49.093064,23.5247093 51.00225,24.3697093 51.00225,26.467093 C51.00225,28.6899419 49.093064,29.5356977 46.9329477,29.5356977 M47.1203895,15.071686 C49.2805058,15.071686 50.5019012,15.916686 50.5019012,17.5137209 C50.5019012,19.0790116 49.1867849,20.1122093 46.6510291,20.1122093 L45.0857384,20.1122093 L45.0857384,15.1971512 C45.4613779,15.1344186 46.0562035,15.071686 47.1203895,15.071686 M51.8162616,21.4893023 L51.8162616,21.4265698 C54.195564,20.5188372 55.2914942,18.797093 55.2914942,16.9498837 C55.2914942,15.0089535 54.2582965,13.5691279 52.7874826,12.7861047 C52.04225,12.3545349 51.2463779,12.0643023 50.3031221,11.8791279 L50.3031221,9.08639535 L47.5179477,9.08639535 L47.5179477,11.6100581 C47.3879477,11.6062791 45.0857384,11.5964535 45.0857384,11.5964535 L45.0857384,9.08639535 L42.300564,9.08639535 L42.300564,11.5964535 L40.3581221,11.5964535 L40.3581221,32.76 L40.3581221,33.0109302 L42.300564,33.0109302 L42.300564,35.5179651 L45.0857384,35.5179651 L45.0857384,33.0706395 C45.2308547,33.0713953 46.8974244,33.0517442 47.5179477,33.0131977 L47.5179477,35.5179651 L50.3031221,35.5179651 L50.3031221,32.6564535 C51.8434709,32.3322093 52.9862616,31.8273256 53.8199244,31.1637209 C55.1350407,30.0995349 56.0117849,28.5962209 56.0117849,26.6552907 C56.0117849,23.9630814 54.2273081,22.1158721 51.8162616,21.4893023" id="Fill-58" fill="#FFFFFF"></path>
                <path d="M129.717477,52.8323779 C129.717477,64.929936 119.910035,74.7373779 107.812477,74.7373779 C95.7141628,74.7373779 85.9067209,64.929936 85.9067209,52.8323779 C85.9067209,40.734064 95.7141628,30.9273779 107.812477,30.9273779 C119.910035,30.9273779 129.717477,40.734064 129.717477,52.8323779" id="Fill-59" fill="url(#linearGradient-1)"></path>
                <path d="M125.709622,52.8323779 C125.709622,62.7169128 117.696483,70.7300523 107.811948,70.7300523 C97.9281686,70.7300523 89.9150291,62.7169128 89.9150291,52.8323779 C89.9150291,42.947843 97.9281686,34.9347035 107.811948,34.9347035 C117.696483,34.9347035 125.709622,42.947843 125.709622,52.8323779" id="Fill-60" fill="url(#linearGradient-2)"></path>
                <path d="M107.2435,60.4628488 C106.429488,60.4628488 105.865651,60.4628488 105.396291,60.4001163 L105.396291,60.3351163 L105.396291,54.4518605 L107.024314,54.4518605 C109.403616,54.4518605 111.312802,55.2976163 111.312802,57.3942442 C111.312802,59.6178488 109.403616,60.4628488 107.2435,60.4628488 M107.430942,45.9988372 C109.591058,45.9988372 110.812453,46.844593 110.812453,48.4408721 C110.812453,50.0069186 109.497337,51.0393605 106.961581,51.0393605 L105.396291,51.0393605 L105.396291,46.1243023 C105.77193,46.0615698 106.366756,45.9988372 107.430942,45.9988372 M112.126814,52.4172093 L112.126814,52.3544767 C114.506116,51.4467442 115.602047,49.7242442 115.602047,47.8777907 C115.602047,45.9361047 114.568849,44.4962791 113.098035,43.7140116 C112.352802,43.281686 111.55693,42.9922093 110.613674,42.8062791 L110.613674,40.0135465 L107.8285,40.0135465 L107.8285,42.5372093 C107.6985,42.5334302 105.396291,42.5243605 105.396291,42.5243605 L105.396291,40.0135465 L102.611116,40.0135465 L102.611116,42.5243605 L100.668674,42.5243605 L100.668674,63.6871512 L100.668674,63.9380814 L102.611116,63.9380814 L102.611116,66.4458721 L105.396291,66.4458721 L105.396291,63.9977907 C105.541407,63.9993023 107.207977,63.9788953 107.8285,63.9403488 L107.8285,66.4458721 L110.613674,66.4458721 L110.613674,63.5836047 C112.154023,63.2593605 113.296814,62.7544767 114.130477,62.0908721 C115.445593,61.026686 116.322337,59.5233721 116.322337,57.5824419 C116.322337,54.8902326 114.53786,53.0430233 112.126814,52.4172093" id="Fill-61" fill="#FFFFFF"></path>
                <path d="M43.9016047,75.3993953 C43.9016047,87.4969535 34.0941628,97.3043953 21.9966047,97.3043953 C9.8982907,97.3043953 0.0908488372,87.4969535 0.0908488372,75.3993953 C0.0908488372,63.3010814 9.8982907,53.4943953 21.9966047,53.4943953 C34.0941628,53.4943953 43.9016047,63.3010814 43.9016047,75.3993953" id="Fill-62" fill="url(#linearGradient-1)"></path>
                <path d="M39.89375,75.3993953 C39.89375,85.2839302 31.8806105,93.2970698 21.9960756,93.2970698 C12.1122965,93.2970698 4.09915698,85.2839302 4.09915698,75.3993953 C4.09915698,65.5148605 12.1122965,57.5017209 21.9960756,57.5017209 C31.8806105,57.5017209 39.89375,65.5148605 39.89375,75.3993953" id="Fill-63" fill="url(#linearGradient-2)"></path>
                <path d="M59.612407,23.0914012 L59.612407,141.298436 C60.7521744,140.954541 61.8654884,140.59175 62.9531047,140.211576 C89.5048488,130.936227 107.026128,105.53861 107.026128,77.4132616 L107.026128,36.0347151 L60.9108953,23.3015174 C60.4785698,23.2304709 60.0454884,23.1601802 59.612407,23.0914012" id="Fill-65" fill="url(#linearGradient-2)"></path>
                <path d="M59.450436,23.0651744 L12.4781105,36.0349419 L12.4781105,77.4127326 C12.4781105,105.538837 29.9993895,130.935698 56.5511337,140.211802 C57.63875,140.591977 58.752064,140.954767 59.8918314,141.298663 L59.8918314,23.1369767 C59.7444477,23.1127907 59.5978198,23.0886047 59.450436,23.0651744" id="Fill-69" fill="url(#linearGradient-3)"></path>
                <polygon id="Fill-67" fill="#FFFFFF" points="59.612407 96.7987558 40.8281628 78.0145116 51.4813605 67.3620698 70.2656047 86.1455581"></polygon>
                <polygon id="Fill-68" fill="#FFFFFF" points="59.612407 96.7987558 87.1920581 69.2191047 76.5388605 58.5666628 48.9592093 86.1455581"></polygon>
            </g>
        </g>
    </g>
</svg>