<svg xmlns="http://www.w3.org/2000/svg" width="9" height="9" viewBox="0 0 9 9">
    <path fill="#4A84CE" fill-rule="nonzero" d="M0 4.5c0 .41.325.737.732.737h5.77L4.018 7.74a.736.736 0 0 0 0 1.042c.288.29.746.29 1.034 0l3.734-3.76A.748.748 0 0 0 9 4.5a.748.748 0 0 0-.214-.521L5.052.218a.723.723 0 0 0-1.034 0 .736.736 0 0 0 0 1.042l2.484 2.503H.732A.731.731 0 0 0 0 4.5z"/>
</svg>
